<svg xmlns="http://www.w3.org/2000/svg" width="43.564" height="43.564" viewBox="0 0 43.564 43.564">
  <g id="close" transform="translate(-25.001 45)">
    <g id="Group_1379" data-name="Group 1379" transform="translate(25.001 -45)">
      <g id="Group_1378" data-name="Group 1378">
        <path id="Path_2380" data-name="Path 2380" d="M51.464-23.236,67.6-39.371a3.294,3.294,0,0,0,0-4.662,3.3,3.3,0,0,0-4.662,0L46.8-27.9,30.665-44.034a3.3,3.3,0,0,0-4.662,0,3.3,3.3,0,0,0,0,4.662L42.139-23.236,25.968-7.065a3.3,3.3,0,0,0,0,4.662,3.283,3.283,0,0,0,2.332.967A3.282,3.282,0,0,0,30.63-2.4L46.8-18.574,62.936-2.44a3.291,3.291,0,0,0,2.332.967A3.288,3.288,0,0,0,67.6-2.44a3.294,3.294,0,0,0,0-4.662Z" transform="translate(-25.001 45)" fill="#ef2128"/>
      </g>
    </g>
  </g>
</svg>
