<svg id="next" xmlns="http://www.w3.org/2000/svg" width="19.925" height="36.188" viewBox="0 0 19.925 36.188">
  <path id="Chevron_Right_1_" d="M54.642,16.8,70.916.534A1.827,1.827,0,0,1,73.5,3.116L58.52,18.093,73.5,33.071a1.828,1.828,0,0,1-2.587,2.583L54.64,19.386A1.843,1.843,0,0,1,54.642,16.8Z" transform="translate(-54.113 0)" fill="#ef2128"/>
</svg>
